{
    "index": {
        "download_fdroid": "Скачать F-Droid",
        "introduction": "F-Droid — это каталог бесплатных приложений с открытым исходным кодом для Android. Программа позволяет легко находить и устанавливать приложения на ваше устройство и следить за их обновлением.",
        "gpg_signature": "PGP-подпись",
        "screenshot": "F-Droid приложение для создания скриншотов на Android",
        "title": "Что такое F-Droid?"
    },
    "navigation": {
        "about": "О нас",
        "documentation": "Документация",
        "forum": "Форум",
        "browse": "Обзор",
        "contribute": "Помочь",
        "repomaker": "Repomaker",
        "tutorials": "Материалы",
        "news": "Новости",
        "issues": "Ошибки"
    },
    "package": {
        "website": "Веб-страница",
        "permissions": "Разрешения",
        "donate": "Пожертвовать",
        "liberapay": "Liberapay",
        "technical_info": "Техническая информация",
        "build_metadata": "Метаданные сборки",
        "author": "Автор",
        "new_in_version": "Новое в версии [latest_version]",
        "version_info": "<b>Версия [package_version]</b> ([package_version_code]) - Добавлена [package_added_date]",
        "changelog": "История изменений",
        "issue_tracker": "Система отслеживания ошибок",
        "signed_by_developer": "Приложение собрано и подписано разработчиком.",
        "gpg_signature": "PGP-подпись",
        "signed_by_fdroid": "Собрано и подписано F-Droid, и точно соответствует <a href=\"[source_code_url]\">исходному коду из архива</a>.",
        "packages": "Пакеты",
        "download": "Скачать [file_extension]",
        "license": "Лицензия",
        "minimum_android_version": "Для этой версии требуется Android [android_version] или выше.",
        "suggest_downloading_via_fdroid": "Можно выбрать загрузку приложения в виде APK (доступно по ссылкам ниже), однако следует помнить, что при такой установке вы не сможете получать уведомления об обновлениях, и что это менее безопасный способ скачивания. Советуем установить приложение F-Droid и использовать его.",
        "source_code": "Исходный код",
        "flattr": "Flattr"
    },
    "sidebars": {
        "latest_packages": {
            "heading": "Новые приложения"
        },
        "news": {
            "heading": "Новости"
        },
        "search": {
            "noscript": "Необходимо активировать JavaScript",
            "search": "Поиск",
            "heading": "Поиск приложений"
        },
        "donate": {
            "bank_transfer_name": "Имя",
            "bitcoin_alt": "Пожертвовать через Bitcoin",
            "powered_by_donations": "F-Droid очень помогают ваши пожертвования!",
            "via_bank_transfer": "Банковский Перевод",
            "litecoin_alt": "Пожертвовать через Litecoin",
            "flattr_alt": "Пожертвовать через Flattr",
            "paypal_alt": "Пожертвовать через PayPal",
            "liberapay_alt": "Пожертвовать через Liberapay",
            "heading": "Пожертвовать"
        },
        "last_updated": {
            "heading": "Обновлено"
        }
    }
}
