{
    "index": {
        "download_fdroid": "Спампаваць F-Droid",
        "introduction": "F-Droid — каталог FOSS-прыкладанняў (вольнага і адкрытага праграмнага забясчэння) для платформы Андроід. Сліент спрашчвае пошук, устаноўку і сачэнне за абнаўленнямі на вашай прыладзе.",
        "gpg_signature": "PGP-подпіс",
        "screenshot": "Здымак экрана прыкладання F-Droid для Андроід",
        "title": "Што такое F-Droid?"
    },
    "navigation": {
        "about": "Пра нас",
        "documentation": "Дакументы",
        "forum": "Форум",
        "browse": "Агляд",
        "contribute": "Удзел",
        "repomaker": "Repomaker",
        "tutorials": "Дапаможнікі",
        "news": "Навіны",
        "issues": "Пытанні"
    },
    "package": {
        "website": "Вэб-сайт",
        "permissions": "Дазволы",
        "donate": "Ахвяраваць",
        "liberapay": "Liberapay",
        "technical_info": "Тэхнічныя звесткі",
        "build_metadata": "Метаданыя сборкі",
        "author": "Аўтар",
        "new_in_version": "Новае ў версіі [latest_version]",
        "version_info": "<b>Версія [package_version]</b> ([package_version_code]) - Даданая [package_added_date]",
        "changelog": "Гісторыя змен",
        "issue_tracker": "Трэкер хібаў",
        "signed_by_developer": "Сабранае і падпісанае арыгінальным распрацоўнікам.",
        "gpg_signature": "PGP-подпіс",
        "signed_by_fdroid": "Сабранае і падпісанае F-Droid, і гарантавана адпавядае <a href=\"[source_code_url]\">архіву зыходнага кода</a>.",
        "packages": "Пакеты",
        "download": "Спампаваць [file_extension]",
        "license": "Ліцэнзія",
        "minimum_android_version": "Гэтая версія патрабуе Андроід [android_version] ці вышэй.",
        "suggest_downloading_via_fdroid": "Вы маеце магчымасць проста спампаваць APK, але звярніце ўвагу, што пры такім спосабе вы не будзеце атрымліваць апавяшчэнняў аб абнаўленнях і гэта менш бяспечны спосаб спампоўкі. Мы рэкамендуем усталяваць і выкарыстоўваць кліент F-Droid.",
        "source_code": "Зыходны код",
        "flattr": "Flattr"
    },
    "sidebars": {
        "latest_packages": {
            "heading": "Новыя прыкладанні"
        },
        "news": {
            "heading": "Навіны"
        },
        "search": {
            "noscript": "Патрабуе ўключыць JavaScript",
            "search": "Пошук",
            "heading": "Знайсці прыкладанні"
        },
        "donate": {
            "bank_transfer_name": "Імя",
            "bitcoin_alt": "Ахвяраваць праз Bitcoin",
            "powered_by_donations": "F-Droid працуе дзякуючы вашым ахвяраванням!",
            "via_bank_transfer": "Банкаўскі перавод",
            "litecoin_alt": "Ахвяраваць праз Litecoin",
            "flattr_alt": "Ахвяраваць праз Flattr",
            "paypal_alt": "Ахвяраваць праз PayPal",
            "liberapay_alt": "Ахвяраваць праз Liberapay",
            "heading": "Ахвяраваць",
            "hellotux": "👕 Цішоткі з 👕 ад",
            "hellotux_alt": "HELLOTUX",
            "hellotux_donation": "F-Droid атрымае 3 € з продажу цішоткі."
        },
        "last_updated": {
            "heading": "Апошнія абнаўленні"
        }
    }
}
