{
    "index": {
        "download_fdroid": "Scarica F-Droid",
        "introduction": "F-Droid è un catalogo di applicazioni FOSS (Free and Open Source Software) installabili per la piattaforma Android. Il client facilita la navigazione, installazione, e tiene traccia degli aggiornamenti nel tuo dispositivo.",
        "gpg_signature": "Firma PGP",
        "screenshot": "Schermata dell'app F-Droid",
        "title": "Cos'è F-Droid?"
    },
    "navigation": {
        "about": "Informazioni",
        "contribute": "Contribuisci",
        "forum": "Forum",
        "browse": "Catalogo",
        "documentation": "Documentazione",
        "repomaker": "Crea repo",
        "tutorials": "Guide",
        "news": "Notizie",
        "issues": "Aiuto"
    },
    "package": {
        "website": "Sito web",
        "permissions": "Autorizzazioni",
        "donate": "Donazioni",
        "liberapay": "Liberapay",
        "technical_info": "Informazioni tecniche",
        "build_metadata": "Build Metadata",
        "author": "Autore",
        "new_in_version": "Novità nella versione [latest_version]",
        "version_info": "<b>Versione [package_version]</b> ([package_version_code]) - Aggiunto il [package_added_date]",
        "changelog": "Cronologia",
        "issue_tracker": "Problemi segnalati",
        "signed_by_developer": "È compilata e firmata dallo sviluppatore originale.",
        "gpg_signature": "Firma PGP",
        "signed_by_fdroid": "È compilata e firmata da F-Droid, e garantita di corrispondere a <a href=\"[source_code_url]\">questa tarball</a>.",
        "packages": "Pacchetti",
        "download": "Scarica [file_extension]",
        "license": "Licenza",
        "minimum_android_version": "Questa versione richiede Android [android_version] o più recente.",
        "suggest_downloading_via_fdroid": "Sebbene tu abbia la possibilità di scaricare gli APK qui sotto, dovresti essere consapevole che installandoli in questo modo non riceverai notifiche di aggiornamento e che è un modo meno sicuro di scaricare. Consigliamo di installare ed utilizzare il client F-Droid.",
        "source_code": "Codice sorgente",
        "flattr": "Flattr"
    },
    "sidebars": {
        "latest_packages": {
            "heading": "App più recenti"
        },
        "news": {
            "heading": "Notizie"
        },
        "search": {
            "noscript": "Richiede JavaScript attivo",
            "search": "Cerca",
            "heading": "Trova app"
        },
        "donate": {
            "bank_transfer_name": "Nome",
            "bitcoin_alt": "Dona via Bitcoin",
            "powered_by_donations": "F-Droid è sostenuto dalle tue donazioni!",
            "via_bank_transfer": "Trasferimento bancario",
            "litecoin_alt": "Dona via Litecoin",
            "flattr_alt": "Dona via Flattr",
            "paypal_alt": "Dona via PayPal",
            "liberapay_alt": "Dona con Liberapay",
            "heading": "Donazioni",
            "hellotux": "👕 Magliette 👕 da",
            "hellotux_alt": "HELLOTUX",
            "hellotux_donation": "F-Droid riceverà 3 € per maglietta venduta."
        },
        "last_updated": {
            "heading": "Ultime aggiornate"
        }
    }
}
